<svg xmlns="http://www.w3.org/2000/svg" width="44" height="44" viewBox="0 0 44 44">
  <path id="facebook_1_" data-name="facebook (1)" d="M37.554,0H6.445A6.453,6.453,0,0,0,0,6.445V37.554A6.453,6.453,0,0,0,6.445,44H19.422V28.445H14.265V20.711h5.156V15.469a7.743,7.743,0,0,1,7.734-7.734h7.82v7.734h-7.82v5.242h7.82l-1.289,7.734H27.156V44h10.4A6.453,6.453,0,0,0,44,37.554V6.445A6.453,6.453,0,0,0,37.554,0Zm0,0" fill="#526fab"/>
</svg>
